labweek5/simulation/qsim/labweek5.msim.vcd
$comment
	File created using the following command:
		vcd file labweek5.msim.vcd -direction
$end
$date
	Thu Oct 08 13:41:14 2015
$end
$version
	ModelSim Version 10.3d
$end
$timescale
	1ps
$end

$scope module labweek5_vlg_vec_tst $end
$var reg 1 ! C $end
$var reg 1 " D $end
$var reg 1 # H $end
$var wire 1 $ B $end
$var wire 1 % I $end
$var wire 1 & sampler $end

$scope module i1 $end
$var wire 1 ' gnd $end
$var wire 1 ( vcc $end
$var wire 1 ) unknown $end
$var tri1 1 * devclrn $end
$var tri1 1 + devpor $end
$var tri1 1 , devoe $end
$var wire 1 - ~QUARTUS_CREATED_GND~I_combout $end
$var wire 1 . C~input_o $end
$var wire 1 / D~input_o $end
$var wire 1 0 H~input_o $end
$var wire 1 1 inst~combout $end
$var wire 1 2 inst7~0_combout $end
$upscope $end
$upscope $end
$enddefinitions $end
#0
$dumpvars
0!
0"
0#
1$
1%
x&
0'
1(
x)
1*
1+
1,
0-
0.
0/
00
11
12
$end
#125000
1!
1.
0&
02
0%
#250000
1#
0!
10
0.
1&
12
01
0$
1%
#375000
1!
1.
0&
11
1$
#500000
1"
0#
0!
1/
00
0.
1&
02
0%
#625000
1!
1.
0&
#750000
1#
0!
10
0.
1&
#875000
1!
1.
0&
