simulation/qsim/Tutorial.msim.vcd
$comment
	File created using the following command:
		vcd file Tutorial.msim.vcd -direction
$end
$date
	Thu Sep 17 16:25:14 2015
$end
$version
	ModelSim Version 10.3d
$end
$timescale
	1ps
$end

$scope module Tutorial_vlg_vec_tst $end
$var reg 1 ! A $end
$var reg 1 " B $end
$var reg 1 # C $end
$var wire 1 $ pin_name1 $end
$var wire 1 % sampler $end

$scope module i1 $end
$var wire 1 & gnd $end
$var wire 1 ' vcc $end
$var wire 1 ( unknown $end
$var tri1 1 ) devclrn $end
$var tri1 1 * devpor $end
$var tri1 1 + devoe $end
$var wire 1 , ~QUARTUS_CREATED_GND~I_combout $end
$var wire 1 - B~input_o $end
$var wire 1 . C~input_o $end
$var wire 1 / A~input_o $end
$var wire 1 0 inst~combout $end
$upscope $end
$upscope $end
$enddefinitions $end
#0
$dumpvars
0!
0"
0#
0$
x%
0&
1'
x(
1)
1*
1+
0,
0-
0.
0/
00
$end
#125000
1#
1.
0%
10
1$
#250000
1"
0#
1-
0.
1%
#375000
1#
1.
0%
#500000
1!
0"
0#
1/
0-
0.
1%
00
0$
#625000
1#
1.
0%
10
1$
#750000
1"
0#
1-
0.
1%
00
0$
#875000
1#
1.
0%
10
1$
