VHDL/simulation/qsim/VHDL.msim.vcd
$comment
	File created using the following command:
		vcd file VHDL.msim.vcd -direction
$end
$date
	Fri Nov 06 01:20:44 2015
$end
$version
	ModelSim Version 10.3d
$end
$timescale
	1ps
$end

$scope module ALU4_vlg_vec_tst $end
$var reg 3 ! S [2:0] $end
$var reg 4 " X [3:0] $end
$var reg 4 # Y [3:0] $end
$var wire 1 $ cOut $end
$var wire 1 % OVFLW $end
$var wire 1 & Z [3] $end
$var wire 1 ' Z [2] $end
$var wire 1 ( Z [1] $end
$var wire 1 ) Z [0] $end
$var wire 1 * sampler $end

$scope module i1 $end
$var wire 1 + gnd $end
$var wire 1 , vcc $end
$var wire 1 - unknown $end
$var tri1 1 . devclrn $end
$var tri1 1 / devpor $end
$var tri1 1 0 devoe $end
$var wire 1 1 Z[0]~output_o $end
$var wire 1 2 Z[1]~output_o $end
$var wire 1 3 Z[2]~output_o $end
$var wire 1 4 Z[3]~output_o $end
$var wire 1 5 cOut~output_o $end
$var wire 1 6 OVFLW~output_o $end
$var wire 1 7 S[1]~input_o $end
$var wire 1 8 S[2]~input_o $end
$var wire 1 9 S[0]~input_o $end
$var wire 1 : Y[0]~input_o $end
$var wire 1 ; X[0]~input_o $end
$var wire 1 < ALU4_GEN:0:LEXTNDRX|MUX8_0|Y~0_combout $end
$var wire 1 = ALU4_GEN:0:AREXTNDRX|MUX8_0|Y~0_combout $end
$var wire 1 > ALU4_GEN:0:FADDRX|HA2|sum~combout $end
$var wire 1 ? Y[1]~input_o $end
$var wire 1 @ X[1]~input_o $end
$var wire 1 A ALU4_GEN:1:LEXTNDRX|MUX8_0|Y~0_combout $end
$var wire 1 B ALU4_GEN:1:AREXTNDRX|MUX8_0|Y~0_combout $end
$var wire 1 C ALU4_GEN:1:FADDRX|HA2|sum~combout $end
$var wire 1 D Y[2]~input_o $end
$var wire 1 E X[2]~input_o $end
$var wire 1 F ALU4_GEN:2:LEXTNDRX|MUX8_0|Y~0_combout $end
$var wire 1 G ALU4_GEN:2:AREXTNDRX|MUX8_0|Y~0_combout $end
$var wire 1 H ALU4_GEN:1:FADDRX|carOut~combout $end
$var wire 1 I ALU4_GEN:2:FADDRX|HA2|sum~combout $end
$var wire 1 J Y[3]~input_o $end
$var wire 1 K X[3]~input_o $end
$var wire 1 L ALU4_GEN:3:LEXTNDRX|MUX8_0|Y~0_combout $end
$var wire 1 M ALU4_GEN:3:AREXTNDRX|MUX8_0|Y~0_combout $end
$var wire 1 N ALU4_GEN:3:FADDRX|HA2|sum~combout $end
$var wire 1 O ALU4_GEN:3:FADDRX|carOut~combout $end
$upscope $end
$upscope $end
$enddefinitions $end
#0
$dumpvars
b0 !
b110 "
b11 #
0$
0%
0)
1(
1'
0&
x*
0+
1,
x-
1.
1/
10
01
12
13
04
05
06
07
08
09
1:
0;
0<
0=
0>
1?
1@
1A
0B
1C
0D
1E
1F
0G
0H
1I
0J
0K
0L
0M
0N
0O
$end
#125000
b1 !
19
0*
1B
1=
1H
0C
1>
11
02
1)
0(
1N
0I
03
14
0'
1&
#250000
b11 !
b10 !
09
17
1*
1M
1G
0B
0=
1C
0>
01
12
0H
0)
1(
1>
1O
0N
1I
13
04
15
11
1'
0&
1$
1)
0I
03
0'
#375000
b11 !
19
0*
0M
0G
0O
1I
13
05
1'
0$
#500000
b111 !
b101 !
b100 !
09
07
18
1*
1M
1G
1B
1=
0>
01
1H
0)
0C
1>
1O
0I
03
15
11
02
0'
1$
1)
0(
1I
13
1'
#625000
b101 !
19
0*
0M
0G
0F
0B
0=
0H
1C
0>
0O
05
01
12
0$
0)
1(
0I
03
0'
#750000
b111 !
b110 !
09
17
1*
1F
0A
1<
0C
1>
1I
13
11
02
1'
1)
0(
#875000
b111 !
19
0*
1L
0F
0<
0>
1N
0I
03
14
01
0'
1&
0)
